;_/_/_/_/_/_/_/_/_/_/_/_/_/_/_/_/_/_/_/_/_/_/_/_/#
;
;	キャラクターデータ(No.002:リリム)
;
;	Licence:ライセンスフリー。
;
;	Edit	Date			Author					Reason
;
;_/_/_/_/_/_/_/_/_/_/_/_/_/_/_/_/_/_/_/_/_/_/_/_/#
;-----------------------------
;- 基礎情報
;-----------------------------
番号,2
名前,リリム
呼び名,リリム

基礎,電撃,1
基礎,妨害,1

CSTR,初期手札0,ATTACK
CSTR,初期手札1,ATTACK
CSTR,初期手札2,ATTACK
CSTR,初期手札3,GUARD
CSTR,初期手札4,GUARD
CSTR,初期手札5,GUARD
CSTR,初期手札6,ジオ
CSTR,初期手札7,電撃耐性
CSTR,初期手札8,ラクンダ
CSTR,初期手札9,タルンダ