﻿000,
001,最新セーブ
002,
003,
004,
005,
006,
007,
008,
009,
010,
011,EP,; 周回得点
012,
013,
014,
015,
016,
017,
018,
019,
020,
021,
022,
023,
024,
025,
026,
027,
028,
029,
030,
031,
032,
033,
034,
035,
036,
037,
038,
039,
040,
041,
042,
043,
044,
045,
046,
047,
048,
049,
050,
051,
052,
053,
054,
055,
056,
057,
058,
059,
060,
061,
062,
063,
064,
065,
066,
067,
068,
069,
070,
071,
072,
073,
074,
075,
076,
077,
078,
079,
080,
081,
082,
083,
084,
085,
086,
087,
088,
089,
090,
091,
092,
093,
094,
095,
096,
097,
098,
099,
100,
101,武装プリセット
102,武装プリセット
103,武装プリセット
104,武装プリセット
105,武装プリセット
106,武装プリセット
107,武装プリセット
108,武装プリセット
109,武装プリセット
110,
111,武装プリセット
112,武装プリセット
113,武装プリセット
114,武装プリセット
115,武装プリセット
116,武装プリセット
117,武装プリセット
118,武装プリセット
119,武装プリセット
120,
121,武装プリセット
122,武装プリセット
123,武装プリセット
124,武装プリセット
125,武装プリセット
126,武装プリセット
127,武装プリセット
128,武装プリセット
129,武装プリセット
130,
131,武装プリセット
132,武装プリセット
133,武装プリセット
134,武装プリセット
135,武装プリセット
136,武装プリセット
137,武装プリセット
138,武装プリセット
139,武装プリセット
140,
141,武装プリセット
142,武装プリセット
143,武装プリセット
144,武装プリセット
145,武装プリセット
146,武装プリセット
147,武装プリセット
148,武装プリセット
149,武装プリセット
150,
151,武装プリセット
152,武装プリセット
153,武装プリセット
154,武装プリセット
155,武装プリセット
156,武装プリセット
157,武装プリセット
158,武装プリセット
159,武装プリセット
160,
161,武装プリセット
162,武装プリセット
163,武装プリセット
164,武装プリセット
165,武装プリセット
166,武装プリセット
167,武装プリセット
168,武装プリセット
169,武装プリセット
170,
171,武装プリセット
172,武装プリセット
173,武装プリセット
174,武装プリセット
175,武装プリセット
176,武装プリセット
177,武装プリセット
178,武装プリセット
179,武装プリセット
180,
181,武装プリセット
182,武装プリセット
183,武装プリセット
184,武装プリセット
185,武装プリセット
186,武装プリセット
187,武装プリセット
188,武装プリセット
189,武装プリセット
190,
191,武装プリセット
192,武装プリセット
193,武装プリセット
194,武装プリセット
195,武装プリセット
196,武装プリセット
197,武装プリセット
198,武装プリセット
199,武装プリセット
